Token Analysis of funfair,kybernetwork & loopring
…
## [1] 0.7758765

#Find the correlation of the whole data to find the best relationship between volume & open
cor_val_whole_open<-cor(as.numeric(as.character(unique_order_by_vol$volume)),unique_order_by_vol$open)
cor_val_whole_open

## [1] 0.7094653

#getting the top 50 most active buyers
top_unique_vol<-unique_order_by_vol[1:80,]
top_unique_vol

## # A tibble: 80 x 10
## # Groups:   date [80]
##    date    open  high    low  close volume marketcap sellers buyers
##    <chr>  <dbl> <dbl>  <dbl>  <dbl> <chr>  <fct>       <int>  <int>
##  1 2018~ 0.110  0.190 0.107  0.174  13122~ 468,662,~ 1796774 1.96e5
##  2 2018~ 0.192  0.196 0.171  0.177  11736~ 816,277,~ 1796774 2.74e6
##  3 2017~ 0.0913 0.126 0.0810 0.0848 87329~ 388,037,~ 1796774 3.81e5
##  4 2018~ 0.168  0.196 0.128  0.193  82403~ 713,827,~       5 2.78e6
##  5 2018~ 0.168  0.189 0.144  0.161  64546~ 712,640,~       5 3.77e5
##  6 2017~ 0.0606 0.102 0.0545 0.0909 53384~ 257,342,~ 2164475 2.16e6
##  7 2018~ 0.173  0.194 0.159  0.168  51203~ 734,586,~ 3878994 3.87e6
##  8 2018~ 0.164  0.185 0.157  0.173  48098~ 695,118,~       5 1.80e6
##  9 2018~ 0.177  0.177 0.144  0.162  46785~ 751,412,~      17 3.87e6
## 10 2018~ 0.111  0.143 0.109  0.122  44912~ 490,203,~ 1796774 1.76e6
## # ... with 70 more rows, and 1 more variable: tokenamt <dbl>
…
## [1] 0.7758765

#Find the correlation of the whole data to find the best relationship between volume & open
kyber_cor_val_whole_open<-cor(as.numeric(as.character(kyber_unique_order_by_vol$volume)),kyber_unique_order_by_vol$open)
cor_val_whole_open

## [1] 0.7094653

#getting the top 200 most active buyers
kyber_top_unique_vol<-kyber_unique_order_by_vol[1:200,]
kyber_top_unique_vol

## # A tibble: 200 x 10
## # Groups:   date [200]
##    date    open  high   low close volume  marketcap sellers buyers tokenamt
##    <chr>  <dbl> <dbl> <dbl> <dbl> <chr>   <fct>       <int>  <int>    <dbl>
##  1 2018-~  2.02  3.38  2     2.61 154904~ 270,871,~ 3457899 5.00e0  1.14e20
##  2 2018-~  2.62  3.09  2.6   2.65 116505~ 351,340,~ 4626850 5.00e0  1.52e22
##  3 2018-~  3.97  5.32  3.97  5.1  617587~ 532,028,~ 4637768 1.74e6  2.16e21
##  4 2018-~  3.22  4.36  3.14  4.01 552323~ 432,118,~      49 4.10e6  1.40e20
##  5 2018-~  2.84  2.87  2.57  2.77 510990~ 380,840,~ 4413100 5.00e0  2.00e19
##  6 2018-~  3.41  3.67  3.33  3.4  438597~ 457,994,~ 2949597 1.25e6  4.00e20
##  7 2018-~  4.44  4.44  3.49  3.63 431068~ 595,237,~       6 3.01e5  1.39e21
##  8 2018-~  5.08  5.72  3.87  4.8  413141~ 681,871,~ 4638109 4.64e6  5.11e20
##  9 2018-~  3.67  4.08  3.1   3.46 398040~ 492,218,~      44 2.91e6  3.11e19
## 10 2018-~  2.77  2.9   2.63  2.64 388294~ 371,398,~     157 4.63e6  1.40e20
## # ... with 190 more rows
…
